<svg xmlns="http://www.w3.org/2000/svg" width="14" height="21" viewBox="0 0 14 21">
  <path id="Localiser_copie" data-name="Localiser" d="M307,15.009a7.214,7.214,0,0,0-7,7.408c0,4.088,7,13.59,7,13.59s7-9.5,7-13.59a7.212,7.212,0,0,0-7-7.408h0Zm-3.5,7a3.5,3.5,0,1,1,3.5,3.5,3.5,3.5,0,0,1-3.5-3.5h0Z" transform="translate(-300 -15)"/>
</svg>
